<?xml version="1.0" encoding="UTF-8"?>
<svg width="31px" height="31px" viewBox="0 0 31 31" version="1.1" xmlns="http://www.w3.org/2000/svg" xmlns:xlink="http://www.w3.org/1999/xlink">
    <!-- Generator: Sketch 53.2 (72643) - https://sketchapp.com -->
    <title>Icon_Linkedin_Interactive</title>
    <desc>Created with Sketch.</desc>
    <g id="WEB-APP" stroke="none" stroke-width="1" fill="none" fill-rule="evenodd">
        <g id="Behavior_Icons" transform="translate(-57.000000, -192.000000)">
            <g id="Icon_Linkedin_Interactive" transform="translate(56.000000, 191.000000)">
                <g id="Linkedin" transform="translate(1.000000, 1.000000)" fill="#707070" fill-rule="nonzero">
                    <path d="M15.5,31 C6.93958638,31 0,24.0604136 0,15.5 C0,6.93958638 6.93958638,0 15.5,0 C24.0604136,0 31,6.93958638 31,15.5 C31,24.0604136 24.0604136,31 15.5,31 Z M7.51169315,13.1020247 L7.51169315,24.8865753 L11.1779233,24.8865753 L11.1779233,13.1020247 L7.51169315,13.1020247 Z M9.34584384,7.24393699 C8.16955616,7.24393699 7.22105479,8.19554521 7.22105479,9.36786301 C7.22105479,10.5404274 8.16955616,11.491937 9.34584384,11.491937 C10.5174219,11.491937 11.468463,10.5404274 11.468463,9.36786301 C11.468463,8.19554521 10.5174219,7.24393699 9.34584384,7.24393699 Z M13.475611,13.1020247 L13.475611,24.8865753 L17.1336795,24.8865753 L17.1336795,19.0578795 C17.1336795,17.5203836 17.4245397,16.0310685 19.3302219,16.0310685 C21.2098658,16.0310685 21.233463,17.789126 21.233463,19.1556466 L21.233463,24.8865753 L24.8955014,24.8865753 L24.8955014,18.4233671 C24.8955014,15.2496712 24.2101945,12.8095616 20.5019233,12.8095616 C18.7200466,12.8095616 17.5249699,13.7865918 17.0366274,14.713074 L16.9863014,14.713074 L16.9863014,13.1020247 L13.475611,13.1020247 Z" id="Combined-Shape"></path>
                </g>
                <rect id="Rectangle" x="0" y="0" width="33" height="33"></rect>
            </g>
        </g>
    </g>
</svg>