<?xml version="1.0" encoding="UTF-8"?>
<svg width="22px" height="22px" viewBox="0 0 22 22" version="1.1" xmlns="http://www.w3.org/2000/svg" xmlns:xlink="http://www.w3.org/1999/xlink">
    <!-- Generator: Sketch 53.2 (72643) - https://sketchapp.com -->
    <title>Icon_account_login_Interactive</title>
    <desc>Created with Sketch.</desc>
    <g id="WEB-APP" stroke="none" stroke-width="1" fill="none" fill-rule="evenodd">
        <g id="Behavior_Icons" transform="translate(-61.000000, -147.000000)">
            <g id="Icon_account_login_Interactive" transform="translate(60.000000, 146.000000)">
                <path d="M12,19.9591346 C13.3397503,19.9591346 14.6001544,19.6242021 15.78125,18.9543269 C16.9270891,18.3373367 17.8701886,17.4823773 18.6105769,16.3894231 C18.5929486,15.7195479 18.17869,15.1025669 17.3677885,14.5384615 C16.6626567,14.0624976 15.7636273,13.674681 14.6706731,13.375 C13.6834887,13.1105756 12.7888662,12.9783654 11.9867788,12.9783654 C11.1846915,12.9783654 10.290069,13.1105756 9.30288462,13.375 C8.20993043,13.674681 7.31971498,14.0624976 6.63221154,14.5384615 C5.82131005,15.1025669 5.40705137,15.7195479 5.38942308,16.3894231 C6.12981139,17.4823773 7.07291094,18.3373367 8.21875,18.9543269 C9.41747394,19.6242021 10.677878,19.9591346 12,19.9591346 Z M12,4.30528846 C11.4182663,4.30528846 10.8717974,4.45512671 10.3605769,4.75480769 C9.84935642,5.05448868 9.44391175,5.45993334 9.14423077,5.97115385 C8.84454978,6.48237435 8.69471154,7.02884325 8.69471154,7.61057692 C8.69471154,8.1923106 8.84454978,8.7387795 9.14423077,9.25 C9.44391175,9.7612205 9.84935642,10.1666652 10.3605769,10.4663462 C10.8717974,10.7660271 11.4182663,10.9158654 12,10.9158654 C12.5817337,10.9158654 13.1282026,10.7660271 13.6394231,10.4663462 C14.1506436,10.1666652 14.5560882,9.7612205 14.8557692,9.25 C15.1554502,8.7387795 15.3052885,8.1923106 15.3052885,7.61057692 C15.3052885,7.02884325 15.1554502,6.48237435 14.8557692,5.97115385 C14.5560882,5.45993334 14.1506436,5.05448868 13.6394231,4.75480769 C13.1282026,4.45512671 12.5817337,4.30528846 12,4.30528846 Z M12,1 C14.0096254,1 15.8693825,1.50239882 17.5793269,2.50721154 C19.2363865,3.45913938 20.5408606,4.76361351 21.4927885,6.42067308 C22.4976012,8.13061752 23,9.99037457 23,12 C23,14.0096254 22.4976012,15.8693825 21.4927885,17.5793269 C20.5408606,19.2363865 19.2363865,20.5408606 17.5793269,21.4927885 C15.8693825,22.4976012 14.0096254,23 12,23 C9.99037457,23 8.13061752,22.4976012 6.42067308,21.4927885 C4.76361351,20.5232323 3.45913937,19.2099442 2.50721154,17.5528846 C1.50239882,15.8429402 1,13.9919971 1,12 C1,10.0080029 1.50239882,8.15705983 2.50721154,6.44711538 C3.47676767,4.79005582 4.79005582,3.47676767 6.44711538,2.50721154 C8.15705983,1.50239882 10.0080029,1 12,1 Z" id="" fill="#1792E5" fill-rule="nonzero"></path>
                <rect id="Rectangle" x="0" y="0" width="24" height="24"></rect>
            </g>
        </g>
    </g>
</svg>