<?xml version="1.0" encoding="UTF-8"?>
<svg width="22px" height="22px" viewBox="0 0 22 22" version="1.1" xmlns="http://www.w3.org/2000/svg" xmlns:xlink="http://www.w3.org/1999/xlink">
    <!-- Generator: Sketch 53.2 (72643) - https://sketchapp.com -->
    <title>Icon_search_Hover</title>
    <desc>Created with Sketch.</desc>
    <g id="WEB-APP" stroke="none" stroke-width="1" fill="none" fill-rule="evenodd">
        <g id="Behavior_Icons" transform="translate(-104.000000, -65.000000)">
            <g id="Icon_search_Hover" transform="translate(103.000000, 64.000000)">
                <path d="M9.21719492,16.1594027 L2.41421356,22.962384 L1,21.5481705 L7.80741212,14.7407584 C6.67511704,13.2968136 6,11.4772478 6,9.5 C6,4.80557963 9.80557963,1 14.5,1 C19.1944204,1 23,4.80557963 23,9.5 C23,14.1944204 19.1944204,18 14.5,18 C12.5035113,18 10.6677885,17.3116797 9.21719492,16.1594027 Z M14.5,16 C18.0898509,16 21,13.0898509 21,9.5 C21,5.91014913 18.0898509,3 14.5,3 C10.9101491,3 8,5.91014913 8,9.5 C8,13.0898509 10.9101491,16 14.5,16 Z" id="Combined-Shape" fill="#A1A1A1" fill-rule="nonzero"></path>
                <rect id="Rectangle" x="0" y="0" width="24" height="24"></rect>
            </g>
        </g>
    </g>
</svg>