<?xml version="1.0" encoding="UTF-8"?>
<svg width="43px" height="43px" viewBox="0 0 43 43" version="1.1" xmlns="http://www.w3.org/2000/svg" xmlns:xlink="http://www.w3.org/1999/xlink">
    <!-- Generator: Sketch 53.2 (72643) - https://sketchapp.com -->
    <title>Icon_backward_Interactive</title>
    <desc>Created with Sketch.</desc>
    <g id="WEB-APP" stroke="none" stroke-width="1" fill="none" fill-rule="evenodd">
        <g id="Behavior_Icons" transform="translate(-51.000000, -354.000000)">
            <g id="Icon_backward_Interactive" transform="translate(50.000000, 353.000000)">
                <path d="M22.5,44 C10.6258779,44 1,34.3741221 1,22.5 C1,10.6258779 10.6258779,1 22.5,1 C34.3741221,1 44,10.6258779 44,22.5 C44,34.3741221 34.3741221,44 22.5,44 Z M17.5147186,23 L27.4142136,13.1005051 L26,11.6862915 L14.6862915,23 L16.1005051,24.4142136 L26,34.3137085 L27.4142136,32.8994949 L17.5147186,23 Z" id="Combined-Shape" fill="#FFFFFF" opacity="0.5"></path>
                <rect id="Rectangle" x="0" y="0" width="45" height="45"></rect>
            </g>
        </g>
    </g>
</svg>